{
  "consumer": {
    "name": "AnyConsumer"
  },
  "provider": {
    "name": "ProductAPI"
  },
  "interactions": [
    {
      "description": "A request for all products",
      "request": {
        "method": "GET",
        "path": "/products",
        "query": ""
      },
      "response": {
        "status": 200,
        "headers": {
          "Content-Type": "application/json"
        },
        "body": {
          "current_page": 1,
          "data": [
            {
              "id": "01J7WPNDG3FYHQK9PVVMSHZE74",
              "name": "Combination Pliers",
              "description": "Lorem ipsum dolor sit amet, consectetur adipiscing elit. Mauris viverra felis nec pellentesque feugiat.",
              "price": 14.15,
              "is_location_offer": false,
              "is_rental": false,
              "in_stock": true,
              "product_image": {
                "id": "01J7WPNDFYEJA197785WQDXBFT",
                "by_name": "Helinton Fantin",
                "by_url": "https://unsplash.com/@fantin",
                "source_name": "Unsplash",
                "source_url": "https://unsplash.com/photos/W8BNwvOvW4M",
                "file_name": "pliers01.avif",
                "title": "Combination pliers"
              },
              "category": {
                "id": "01J7WPNDFV9R4DPXFANQ2GZ1MB",
                "name": "Pliers",
                "slug": "pliers",
                "parent_id": "01J7WPNDFRR91AASPVXMCASW41"
              },
              "brand": {
                "id": "01J7WPNDFK1F9KXNVPSVQP6EHY",
                "name": "ForgeFlex Tools",
                "slug": "forgeflex-tools"
              }
            },
            {
              "id": "01J7WPNDG424DVVWMC492D29CW",
              "name": "Pliers",
              "description": "Nunc vulputate, orci at congue faucibus, enim neque sodales nulla, nec imperdiet augue odio vel nibh.",
              "price": 12.01,
              "is_location_offer": false,
              "is_rental": false,
              "in_stock": true,
              "product_image": {
                "id": "01J7WPNDFYEJA197785WQDXBFV",
                "by_name": "Everyday basics",
                "by_url": "https://unsplash.com/@zanardi",
                "source_name": "Unsplash",
                "source_url": "https://unsplash.com/photos/I8eTuMmxIfo",
                "file_name": "pliers02.avif",
                "title": "Pliers"
              },
              "category": {
                "id": "01J7WPNDFV9R4DPXFANQ2GZ1MB",
                "name": "Pliers",
                "slug": "pliers",
                "parent_id": "01J7WPNDFRR91AASPVXMCASW41"
              },
              "brand": {
                "id": "01J7WPNDFK1F9KXNVPSVQP6EHY",
                "name": "ForgeFlex Tools",
                "slug": "forgeflex-tools"
              }
            }
          ],
          "from": 1,
          "last_page": 5,
          "per_page": 9,
          "to": 9,
          "total": 45
        }
      }
    },
    {
      "description": "A request for rental products",
      "request": {
        "method": "GET",
        "path": "/products",
        "query": "is_rental=true"
      },
      "response": {
        "status": 200,
        "headers": {
          "Content-Type": "application/json"
        },
        "body": {
          "current_page": 1,
          "data": [
            {
              "id": "01J7WPNDHX679T12D37VFHPXX9",
              "name": "Excavator",
              "description": "Aliquam tempus consequat ligula rutrum consequat. Pellentesque quis felis bibendum nunc facilisis vehicula et sed nunc.",
              "price": 136.5,
              "is_location_offer": true,
              "is_rental": true,
              "in_stock": false,
              "product_image": {
                "id": "01J7WPNDFYEJA197785WQDXBGN",
                "by_name": "John Kakuk",
                "by_url": "https://unsplash.com/@mgnfy",
                "source_name": "Unsplash",
                "source_url": "https://unsplash.com/photos/HvvPceHYLOg",
                "file_name": "excavator01.avif",
                "title": "Excavator"
              },
              "category": {
                "id": "01J7WPNDFV9R4DPXFANQ2GZ1MH",
                "name": "Drill",
                "slug": "drill",
                "parent_id": "01J7WPNDFRR91AASPVXMCASW42"
              },
              "brand": {
                "id": "01J7WPNDFK1F9KXNVPSVQP6EHY",
                "name": "ForgeFlex Tools",
                "slug": "forgeflex-tools"
              }
            },
            {
              "id": "01J7WPNDHY8CXJMQQWMNC55TBM",
              "name": "Bulldozer",
              "description": "Maecenas varius suscipit rutrum. Quisque vel egestas mi. Cras gravida vitae ipsum non placerat. Nulla facilisi.",
              "price": 147.5,
              "is_location_offer": true,
              "is_rental": true,
              "in_stock": false,
              "product_image": {
                "id": "01J7WPNDFYEJA197785WQDXBGP",
                "by_name": "Zac Edmonds",
                "by_url": "https://unsplash.com/@zacedmo",
                "source_name": "Unsplash",
                "source_url": "https://unsplash.com/photos/N1LBcqLP9ec",
                "file_name": "bulldozer01.avif",
                "title": "Bulldozer"
              },
              "category": {
                "id": "01J7WPNDFV9R4DPXFANQ2GZ1MH",
                "name": "Drill",
                "slug": "drill",
                "parent_id": "01J7WPNDFRR91AASPVXMCASW42"
              },
              "brand": {
                "id": "01J7WPNDFK1F9KXNVPSVQP6EHY",
                "name": "ForgeFlex Tools",
                "slug": "forgeflex-tools"
              }
            },
            {
              "id": "01J7WPNDHZQ8VZM0ZTFNQXTMAN",
              "name": "Crane",
              "description": "Donec lacus nulla, posuere id nibh convallis, lobortis sollicitudin sem.",
              "price": 153.5,
              "is_location_offer": true,
              "is_rental": true,
              "in_stock": false,
              "product_image": {
                "id": "01J7WPNDFYEJA197785WQDXBGM",
                "by_name": "Ade Adebowale",
                "by_url": "https://unsplash.com/@adebowax",
                "source_name": "Unsplash",
                "source_url": "https://unsplash.com/photos/DKr6BEdI2sE",
                "file_name": "crane01.avif",
                "title": "Crane"
              },
              "category": {
                "id": "01J7WPNDFV9R4DPXFANQ2GZ1MH",
                "name": "Drill",
                "slug": "drill",
                "parent_id": "01J7WPNDFRR91AASPVXMCASW42"
              },
              "brand": {
                "id": "01J7WPNDFK1F9KXNVPSVQP6EHZ",
                "name": "MightyCraft Hardware",
                "slug": "mightycraft-hardware"
              }
            }
          ],
          "from": 1,
          "last_page": 1,
          "per_page": 9,
          "to": 3,
          "total": 3
        }
      }
    }
  ],
  "metadata": {
    "pactSpecification": {
      "version": "2.0.0"
    }
  }
}
